…
``` r
newdata=newdata%>%
  gather(key=week,value=observation,week_1:week_8)
newdata
```

    ## # A tibble: 160 x 3
    ##    subject week   observation
    ##    <chr>   <chr>        <dbl>
    ##  1 con_01  week_1        0.2 
    ##  2 con_02  week_1        1.13
    ##  3 con_03  week_1        1.77
    ##  4 con_04  week_1        1.04
    ##  5 con_05  week_1        0.47
    ##  6 con_06  week_1        2.37
    ##  7 con_07  week_1        0.03
    ##  8 con_08  week_1       -0.08
    ##  9 con_09  week_1        0.08
    ## 10 con_10  week_1        2.14
    ## # ... with 150 more rows
…
``` r
data
```

    ## # A tibble: 52,179 x 12
    ##    uid   reported_date victim_last victim_first victim_race victim_age
    ##    <chr>         <int> <chr>       <chr>        <chr>       <chr>     
    ##  1 Alb-~      20100504 GARCIA      JUAN         Hispanic    78        
    ##  2 Alb-~      20100216 MONTOYA     CAMERON      Hispanic    17        
    ##  3 Alb-~      20100601 SATTERFIELD VIVIANA      White       15        
    ##  4 Alb-~      20100101 MENDIOLA    CARLOS       Hispanic    32        
    ##  5 Alb-~      20100102 MULA        VIVIAN       White       72        
    ##  6 Alb-~      20100126 BOOK        GERALDINE    White       91        
    ##  7 Alb-~      20100127 MALDONADO   DAVID        Hispanic    52        
    ##  8 Alb-~      20100127 MALDONADO   CONNIE       Hispanic    52        
    ##  9 Alb-~      20100130 MARTIN-LEY~ GUSTAVO      White       56        
    ## 10 Alb-~      20100210 HERRERA     ISRAEL       Hispanic    43        
    ## # ... with 52,169 more rows, and 6 more variables: victim_sex <chr>,
    ## #   city <chr>, state <chr>, lat <dbl>, lon <dbl>, disposition <chr>

``` r
data=data%>%
  unite("city_state",c("city","state"))
data
```

    ## # A tibble: 52,179 x 11
    ##    uid   reported_date victim_last victim_first victim_race victim_age
    ##    <chr>         <int> <chr>       <chr>        <chr>       <chr>     
    ##  1 Alb-~      20100504 GARCIA      JUAN         Hispanic    78        
    ##  2 Alb-~      20100216 MONTOYA     CAMERON      Hispanic    17        
    ##  3 Alb-~      20100601 SATTERFIELD VIVIANA      White       15        
    ##  4 Alb-~      20100101 MENDIOLA    CARLOS       Hispanic    32        
    ##  5 Alb-~      20100102 MULA        VIVIAN       White       72        
    ##  6 Alb-~      20100126 BOOK        GERALDINE    White       91        
    ##  7 Alb-~      20100127 MALDONADO   DAVID        Hispanic    52        
    ##  8 Alb-~      20100127 MALDONADO   CONNIE       Hispanic    52        
    ##  9 Alb-~      20100130 MARTIN-LEY~ GUSTAVO      White       56        
    ## 10 Alb-~      20100210 HERRERA     ISRAEL       Hispanic    43        
    ## # ... with 52,169 more rows, and 5 more variables: victim_sex <chr>,
    ## #   city_state <chr>, lat <dbl>, lon <dbl>, disposition <chr>

``` r
totalhomicide=data%>%
  group_by(city_state)%>%
  summarize(total_homicide=n())%>%
  filter(!city_state=="Tulsa_AL")
totalhomicide
```

    ## # A tibble: 50 x 2
    ##    city_state     total_homicide
    ##    <chr>                   <int>
    ##  1 Albuquerque_NM            378
    ##  2 Atlanta_GA                973
    ##  3 Baltimore_MD             2827
    ##  4 Baton Rouge_LA            424
    ##  5 Birmingham_AL             800
    ##  6 Boston_MA                 614
    ##  7 Buffalo_NY                521
    ##  8 Charlotte_NC              687
    ##  9 Chicago_IL               5535
    ## 10 Cincinnati_OH             694
    ## # ... with 40 more rows

``` r
unsolved=data%>%
  group_by(city_state)%>%
  filter(disposition%in%c("Closed without arrest","Open/No arrest"))%>%
  summarize(unsolved_homicide=n())
unsolved  
```

    ## # A tibble: 50 x 2
    ##    city_state     unsolved_homicide
    ##    <chr>                      <int>
    ##  1 Albuquerque_NM               146
    ##  2 Atlanta_GA                   373
    ##  3 Baltimore_MD                1825
    ##  4 Baton Rouge_LA               196
    ##  5 Birmingham_AL                347
    ##  6 Boston_MA                    310
    ##  7 Buffalo_NY                   319
    ##  8 Charlotte_NC                 206
    ##  9 Chicago_IL                  4073
    ## 10 Cincinnati_OH                309
    ## # ... with 40 more rows
…
